{
	"info": {
		"_postman_id": "385ac600-2e4f-4dce-b40b-b8b456fe4c92",
		"name": "EC_Collection",
		"schema": "https://schema.getpostman.com/json/collection/v2.1.0/collection.json"
	},
	"item": [
		{
			"name": "Sign Up",
			"request": {
				"method": "POST",
				"header": [],
				"body": {
					"mode": "raw",
					"raw": "{\r\n    \"name\":\"Akhi User\",\r\n     \"username\":\"Akhi User Name\",\r\n    \"email\":\"akhiuser@gmail.com\",\r\n    \"mobile\":\"01588996633\",\r\n    \"passwordhash\":\"akhiuser\",\r\n    \"address\":\"Kaptai\"\r\n}",
					"options": {
						"raw": {
							"language": "json"
						}
					}
				},
				"url": {
					"raw": "http://localhost:9095/contact/sign_up",
					"protocol": "http",
					"host": [
						"localhost"
					],
					"port": "9095",
					"path": [
						"contact",
						"sign_up"
					]
				}
			},
			"response": []
		},
		{
			"name": "Sign In",
			"request": {
				"method": "POST",
				"header": [],
				"body": {
					"mode": "raw",
					"raw": "{\r\n    \"username\": \"Akhi User Name\",\r\n    \"email\": \"akhiuser@gmail.com\",\r\n    \"passwordhash\": \"akhiuser\"\r\n}",
					"options": {
						"raw": {
							"language": "json"
						}
					}
				},
				"url": {
					"raw": "http://localhost:9095/contact/sign_in",
					"protocol": "http",
					"host": [
						"localhost"
					],
					"port": "9095",
					"path": [
						"contact",
						"sign_in"
					]
				}
			},
			"response": []
		},
		{
			"name": "Cart Details By Contact ID",
			"request": {
				"method": "POST",
				"header": [],
				"url": {
					"raw": "http://localhost:9095/contact/cart_details/6208c5cfed4d251b940a3f97",
					"protocol": "http",
					"host": [
						"localhost"
					],
					"port": "9095",
					"path": [
						"contact",
						"cart_details",
						"6208c5cfed4d251b940a3f97"
					]
				}
			},
			"response": []
		},
		{
			"name": "Wish List Details By Contact ID",
			"request": {
				"method": "POST",
				"header": [],
				"url": {
					"raw": "http://localhost:9095/contact/wishlist_details/6208c5cfed4d251b940a3f97",
					"protocol": "http",
					"host": [
						"localhost"
					],
					"port": "9095",
					"path": [
						"contact",
						"wishlist_details",
						"6208c5cfed4d251b940a3f97"
					]
				}
			},
			"response": []
		}
	]
}