{
	"info": {
		"_postman_id": "b695f9a5-f03a-4897-93c9-ca07891ca06b",
		"name": "VAI21_SalesReturnings_API",
		"schema": "https://schema.getpostman.com/json/collection/v2.1.0/collection.json"
	},
	"item": [
		{
			"name": "new_sales_returning_request",
			"request": {
				"method": "POST",
				"header": [],
				"body": {
					"mode": "raw",
					"raw": "{\r\n    \"customerref\": \"6177f44f124e70d0a3264f12\",\r\n    \"date\": \"2021-09-15T03:11:00+06:00\",\r\n    \"time\": \"2021-09-15T03:11:00+06:00\",\r\n    \"status\": \"created\",\r\n    \"products\": [\r\n        {\r\n            \"productref\": \"6171a8c3a1374aff7a1e2ac9\",\r\n            \"soldamount\": 500,\r\n            \"price\": 500,\r\n            \"returningdemand\": 200,\r\n            \"returningactual\":0\r\n        },\r\n        {\r\n            \"productref\": \"6171a982a1374aff7a1e2aca\",\r\n            \"soldamount\": 500,\r\n            \"price\": 800,\r\n            \"returningdemand\": 0,\r\n            \"returningactual\":0\r\n        }\r\n    ],\r\n    \"totalproduct\": 2,\r\n    \"totoltax\": 1000,\r\n    \"total\": 3000,\r\n    \"inventoryref\": null,\r\n    \"salesref\": \"61b9e760af126946ca173a25\",\r\n    \"type\": \"request\",\r\n    \"paymentref\": [],\r\n    \"isconvertedtoreturninginvoice\":false,\r\n    \"reasons\":\"sadadasdadasdas ajsjdhhdas ajdhashsdas\",\r\n    \"salesinvoiceserial\":\"000000149\",\r\n    \"paidamount\": 0,\r\n    \"sourceoffundref\": null\r\n}",
					"options": {
						"raw": {
							"language": "json"
						}
					}
				},
				"url": {
					"raw": "http://localhost:9095/salesreturnings/new_sales_returning_request",
					"protocol": "http",
					"host": [
						"localhost"
					],
					"port": "9095",
					"path": [
						"salesreturnings",
						"new_sales_returning_request"
					]
				}
			},
			"response": []
		},
		{
			"name": "get_all",
			"request": {
				"method": "POST",
				"header": [],
				"url": {
					"raw": "http://localhost:9095/salesreturnings/get_all",
					"protocol": "http",
					"host": [
						"localhost"
					],
					"port": "9095",
					"path": [
						"salesreturnings",
						"get_all"
					]
				}
			},
			"response": []
		},
		{
			"name": "get_all_populated",
			"request": {
				"method": "POST",
				"header": [],
				"url": {
					"raw": "http://localhost:9095/salesreturnings/get_all_populated",
					"protocol": "http",
					"host": [
						"localhost"
					],
					"port": "9095",
					"path": [
						"salesreturnings",
						"get_all_populated"
					]
				}
			},
			"response": []
		},
		{
			"name": "set status by type",
			"request": {
				"method": "PUT",
				"header": [],
				"url": {
					"raw": "http://localhost:9095/salesreturnings/set_status/request/61b9e811af126946ca173a29/confirmed",
					"protocol": "http",
					"host": [
						"localhost"
					],
					"port": "9095",
					"path": [
						"salesreturnings",
						"set_status",
						"request",
						"61b9e811af126946ca173a29",
						"confirmed"
					]
				}
			},
			"response": []
		},
		{
			"name": "new_sales_returning_invoice",
			"request": {
				"method": "POST",
				"header": [],
				"body": {
					"mode": "raw",
					"raw": "{\r\n    \"customerref\": \"6177f44f124e70d0a3264f12\",\r\n    \"date\": \"2021-09-15T03:11:00+06:00\",\r\n    \"time\": \"2021-09-15T03:11:00+06:00\",\r\n    \"status\": \"created\",\r\n    \"products\": [\r\n        {\r\n            \"productref\": \"6171a8c3a1374aff7a1e2ac9\",\r\n            \"soldamount\": 500,\r\n            \"price\": 500,\r\n            \"returningdemand\": 200,\r\n            \"returningactual\":200\r\n        },\r\n        {\r\n            \"productref\": \"6171a982a1374aff7a1e2aca\",\r\n            \"soldamount\": 100,\r\n            \"price\": 800,\r\n            \"returningdemand\": 0,\r\n            \"returningactual\":0\r\n        }\r\n    ],\r\n    \"totalproduct\": 2,\r\n    \"totoltax\": 1000,\r\n    \"total\": 3000,\r\n    \"inventoryref\": \"617a66083528486a22d4b045\",\r\n    \"salesref\": \"61b9e760af126946ca173a25\",\r\n    \"type\": \"invoice\",\r\n    \"paymentref\": [],\r\n    \"isconvertedtoreturninginvoice\":false,\r\n    \"reasons\":\"sadadasdadasdas ajsjdhhdas ajdhashsdas\",\r\n    \"salesinvoiceserial\":\"000000149\",\r\n    \"paidamount\": 1000,\r\n    \"sourceoffundref\": \"618baa5838ffbf2451a8e5ff\",\r\n    \"salesreturningrequestref\":\"61b9e811af126946ca173a29\"\r\n}\r\n",
					"options": {
						"raw": {
							"language": "json"
						}
					}
				},
				"url": {
					"raw": "http://localhost:9095/salesreturnings/new_sales_returning_invoice",
					"protocol": "http",
					"host": [
						"localhost"
					],
					"port": "9095",
					"path": [
						"salesreturnings",
						"new_sales_returning_invoice"
					]
				}
			},
			"response": []
		}
	]
}