{
	"info": {
		"_postman_id": "ccd4bdb6-77b6-41a3-b4d3-031ac78da7ef",
		"name": "VAI_Users_API",
		"schema": "https://schema.getpostman.com/json/collection/v2.1.0/collection.json"
	},
	"item": [
		{
			"name": "Create New",
			"request": {
				"method": "POST",
				"header": [],
				"body": {
					"mode": "raw",
					"raw": "{\r\n    \"name\":\"rahat\",\r\n    \"username\":\"rahat@99\",\r\n    \"password\":\"123\",\r\n    \"passwordhash\":\"\",\r\n    \"mobilenumber\":\"0144\",\r\n    \"email\":\"rahat@gmail.com\",\r\n    \"address\":\"kathgor\",\r\n    \"nationalid\":\"52615261\",\r\n    \"operations\":{\r\n        \"branchrefs\": [\"61b5ec1a3807735cd602cc89\"],\r\n        \"sofrefs\": [\"61b5eccd3807735cd602cc8a\"],\r\n        \"inventoryrefs\": [\"6195f222c31aa51c1c1cdb0f\"]\r\n    },\r\n    \"permissions\":{\r\n        \"dashboard\": true,\r\n        \"createproducts\":false,\r\n        \"createrawmaterials\":true,\r\n        \"billofpayments\": true\r\n    }",
					"options": {
						"raw": {
							"language": "json"
						}
					}
				},
				"url": {
					"raw": "http://localhost:9095/users/new",
					"protocol": "http",
					"host": [
						"localhost"
					],
					"port": "9095",
					"path": [
						"users",
						"new"
					]
				}
			},
			"response": []
		},
		{
			"name": "Get All",
			"request": {
				"method": "POST",
				"header": [],
				"url": {
					"raw": "http://localhost:9095/users/get_all",
					"protocol": "http",
					"host": [
						"localhost"
					],
					"port": "9095",
					"path": [
						"users",
						"get_all"
					]
				}
			},
			"response": []
		},
		{
			"name": "Get All Populated",
			"request": {
				"method": "POST",
				"header": [],
				"url": {
					"raw": "http://localhost:9095/users/get_all_populated",
					"protocol": "http",
					"host": [
						"localhost"
					],
					"port": "9095",
					"path": [
						"users",
						"get_all_populated"
					]
				}
			},
			"response": []
		}
	]
}