{
	"info": {
		"_postman_id": "758844c8-c8e6-45a9-bfa8-2b4b7dcef43d",
		"name": "VAI_22",
		"schema": "https://schema.getpostman.com/json/collection/v2.1.0/collection.json"
	},
	"item": [
		{
			"name": "SOFTransaction",
			"item": [
				{
					"name": "get_all_populated",
					"request": {
						"method": "POST",
						"header": [],
						"body": {
							"mode": "raw",
							"raw": "{\r\n    \"sourcesofref\":\"618baa5838ffbf2451a8e5ff\",\r\n    \"sourcesofrefisused\": true\r\n}",
							"options": {
								"raw": {
									"language": "json"
								}
							}
						},
						"url": {
							"raw": "http://localhost:9095/sof_transaction/get_all_populated",
							"protocol": "http",
							"host": [
								"localhost"
							],
							"port": "9095",
							"path": [
								"sof_transaction",
								"get_all_populated"
							]
						}
					},
					"response": []
				},
				{
					"name": "get_all",
					"request": {
						"method": "POST",
						"header": [],
						"url": {
							"raw": "http://localhost:9095/sof_transaction/get_all",
							"protocol": "http",
							"host": [
								"localhost"
							],
							"port": "9095",
							"path": [
								"sof_transaction",
								"get_all"
							]
						}
					},
					"response": []
				},
				{
					"name": "new",
					"request": {
						"method": "POST",
						"header": [],
						"body": {
							"mode": "raw",
							"raw": "{\r\n    \"sourcesofref\":\"618baa5838ffbf2451a8e5ff\",\r\n    \"destinationsofref\":\"618baa8938ffbf2451a8e600\",\r\n    \"amount\":200,\r\n    \"description\":\"testing\",\r\n    \"feeamount\":100,\r\n    \"feesofref\":\"618baa5838ffbf2451a8e5ff\",\r\n    \"feeapplied\":true\r\n}",
							"options": {
								"raw": {
									"language": "json"
								}
							}
						},
						"url": {
							"raw": "http://localhost:9095/sof_transaction/new",
							"protocol": "http",
							"host": [
								"localhost"
							],
							"port": "9095",
							"path": [
								"sof_transaction",
								"new"
							]
						}
					},
					"response": []
				},
				{
					"name": "Advanced SOF Report",
					"request": {
						"method": "POST",
						"header": [],
						"body": {
							"mode": "raw",
							"raw": "{\r\n    \"datefrom\": \"2022-01-26T00:00:00.000Z\",\r\n\"dateto\": \"2022-01-26T23:59:59.999Z\",\r\n\"sofref\": \"61caaacd18d625494a8fd5c6\"\r\n}",
							"options": {
								"raw": {
									"language": "json"
								}
							}
						},
						"url": {
							"raw": "http://localhost:9095/sof/sof_report/get_all",
							"protocol": "http",
							"host": [
								"localhost"
							],
							"port": "9095",
							"path": [
								"sof",
								"sof_report",
								"get_all"
							]
						}
					},
					"response": []
				}
			]
		},
		{
			"name": "InventoryGL Aggregated",
			"item": [
				{
					"name": "InventoryGL Aggregated",
					"request": {
						"method": "POST",
						"header": [],
						"body": {
							"mode": "raw",
							"raw": "{\r\n    \"inventoryref\":\"617a66083528486a22d4b045\",\r\n    \"datefrom\":\"2022-02-03T20:32:14.605+00:00\",\r\n    \"dateto\":\"2022-02-09T07:56:58.723+00:00\"\r\n}",
							"options": {
								"raw": {
									"language": "json"
								}
							}
						},
						"url": {
							"raw": "http://localhost:9095/inventorygl/aggregated/get_all",
							"protocol": "http",
							"host": [
								"localhost"
							],
							"port": "9095",
							"path": [
								"inventorygl",
								"aggregated",
								"get_all"
							]
						}
					},
					"response": []
				}
			]
		},
		{
			"name": "Customer Wallet",
			"item": [
				{
					"name": "http://localhost:9095/payment/customer_wallet/new",
					"request": {
						"method": "POST",
						"header": [],
						"body": {
							"mode": "raw",
							"raw": "{\r\n    \"customerref\":\"61c9dc691311e67cfde010d9\",\r\n    \"amount\":3000,\r\n    \"sourceoffundref\":\"618baa5838ffbf2451a8e5ff\"\r\n}",
							"options": {
								"raw": {
									"language": "json"
								}
							}
						},
						"url": {
							"raw": "http://localhost:9095/payment/customer_wallet/new",
							"protocol": "http",
							"host": [
								"localhost"
							],
							"port": "9095",
							"path": [
								"payment",
								"customer_wallet",
								"new"
							]
						}
					},
					"response": []
				},
				{
					"name": "Get all customer wallet",
					"request": {
						"method": "POST",
						"header": [],
						"body": {
							"mode": "raw",
							"raw": "{\r\n    \"customerref\":\"6177f44f124e70d0a3264f12\",\r\n    \"customerrefisused\":false\r\n}",
							"options": {
								"raw": {
									"language": "json"
								}
							}
						},
						"url": {
							"raw": "http://localhost:9095/payment/customer_wallet/get_all",
							"protocol": "http",
							"host": [
								"localhost"
							],
							"port": "9095",
							"path": [
								"payment",
								"customer_wallet",
								"get_all"
							]
						}
					},
					"response": []
				},
				{
					"name": "Get All Wallet Of A Specific Customer",
					"request": {
						"method": "POST",
						"header": [],
						"body": {
							"mode": "raw",
							"raw": "",
							"options": {
								"raw": {
									"language": "json"
								}
							}
						},
						"url": {
							"raw": "http://localhost:9095/payment/customer_wallet/get_all/6177f44f124e70d0a3264f12",
							"protocol": "http",
							"host": [
								"localhost"
							],
							"port": "9095",
							"path": [
								"payment",
								"customer_wallet",
								"get_all",
								"6177f44f124e70d0a3264f12"
							]
						}
					},
					"response": []
				},
				{
					"name": "Customer Payment To The Sales Via Wallet",
					"request": {
						"method": "POST",
						"header": [],
						"body": {
							"mode": "raw",
							"raw": "{\r\n    \"customerref\":\"6177f44f124e70d0a3264f12\",\r\n    \"customerpaymentrefsforwallet\":[\"61fa2f308ccd6b77765f99f9\"],\r\n    \"amount\":500\r\n}",
							"options": {
								"raw": {
									"language": "json"
								}
							}
						},
						"url": {
							"raw": "http://localhost:9095/payment/customer_via_wallet/61fa7ec1c19861f5c1c30aa7",
							"protocol": "http",
							"host": [
								"localhost"
							],
							"port": "9095",
							"path": [
								"payment",
								"customer_via_wallet",
								"61fa7ec1c19861f5c1c30aa7"
							]
						}
					},
					"response": []
				}
			]
		}
	]
}